graph G {
graph [insert_size = 0, sd = 0];
0[label = "0"];
1[label = "1"];
2[label = "2"];
3[label = "3"];
4[label = "4"];
5[label = "5"];
6[label = "6"];
7[label = "7"];
8[label = "8"];
9[label = "9"];
10[label = "10"];
11[label = "11"];
12[label = "12"];
13[label = "13"];
14[label = "14"];
15[label = "15"];
16[label = "16"];
17[label = "17"];
18[label = "18"];
19[label = "19"];
20[label = "20"];
21[label = "21"];
22[label = "22"];
23[label = "23"];
24[label = "24"];
25[label = "25"];
26[label = "26"];
27[label = "27"];
28[label = "28"];
29[label = "29"];
30[label = "30"];
31[label = "31"];
32[label = "32"];
33[label = "33"];
34[label = "34"];
35[label = "35"];
36[label = "36"];
37[label = "37"];
38[label = "38"];
39[label = "39"];
40[label = "40"];
41[label = "41"];
42[label = "42"];
43[label = "43"];
44[label = "44"];
45[label = "45"];
46[label = "46"];
47[label = "47"];
48[label = "48"];
49[label = "49"];
50[label = "50"];
51[label = "51"];
52[label = "52"];
53[label = "53"];
54[label = "54"];
55[label = "55"];
56[label = "56"];
57[label = "57"];
58[label = "58"];
59[label = "59"];
60[label = "60"];
61[label = "61"];
62[label = "62"];
63[label = "63"];
64[label = "64"];
65[label = "65"];
66[label = "66"];
67[label = "67"];
68[label = "68"];
69[label = "69"];
70[label = "70"];
71[label = "71"];
72[label = "72"];
73[label = "73"];
74[label = "74"];
75[label = "75"];
76[label = "76"];
77[label = "77"];
78[label = "78"];
79[label = "79"];
80[label = "80"];
81[label = "81"];
82[label = "82"];
83[label = "83"];
84[label = "84"];
85[label = "85"];
86[label = "86"];
87[label = "87"];
88[label = "88"];
89[label = "89"];
90[label = "90"];
91[label = "91"];
92[label = "92"];
93[label = "93"];
94[label = "94"];
95[label = "95"];
96[label = "96"];
97[label = "97"];
74--92 [cname = "", length = -2147483648, style = "bold", mult = 2, color = "darkgreen"];
67--0 [cname = "", length = -2147483648, style = "bold", mult = 2, color = "darkgreen"];
42--54 [cname = "", length = -2147483648, style = "bold", mult = 1];
68--39 [cname = "", length = -2147483648, style = "bold", mult = 2, color = "darkgreen"];
37--13 [cname = "", length = -2147483648, style = "bold", mult = 2, color = "darkgreen"];
34--45 [cname = "", length = -2147483648, style = "bold", mult = 2, color = "darkgreen"];
18--87 [cname = "", length = -2147483648, style = "bold", mult = 1];
35--31 [cname = "", length = -2147483648, style = "bold", mult = 2, color = "darkgreen"];
27--30 [cname = "", length = -2147483648, style = "bold", mult = 2, color = "darkgreen"];
8--29 [cname = "", length = -2147483648, style = "bold", mult = 1];
85--66 [cname = "", length = -2147483648, style = "bold", mult = 1];
46--60 [cname = "", length = -2147483648, style = "bold", mult = 2, color = "darkgreen"];
62--81 [cname = "", length = -2147483648, style = "bold", mult = 2, color = "darkgreen"];
1--32 [cname = "", length = -2147483648, style = "bold", mult = 2, color = "darkgreen"];
16--28 [cname = "", length = -2147483648, style = "bold", mult = 2, color = "darkgreen"];
97--11 [cname = "", length = -2147483648, style = "bold", mult = 1];
5--44 [cname = "", length = -2147483648, style = "bold", mult = 1];
64--76 [cname = "", length = -2147483648, style = "bold", mult = 3, color = "darkgreen"];
75--59 [cname = "", length = -2147483648, style = "bold", mult = 1];
70--43 [cname = "", length = -2147483648, style = "bold", mult = 2, color = "darkgreen"];
77--30 [label =  2, meandist = -2147483648];
49--30 [label =  23, meandist = -2147483648];
90--32 [label =  19, meandist = -2147483648];
73--0 [label =  2, meandist = -2147483648];
65--76 [label =  47, meandist = -2147483648];
75--1 [label =  19, meandist = -2147483648];
61--31 [label =  61, meandist = -2147483648];
70--93 [label =  31, meandist = -2147483648];
70--4 [label =  14, meandist = -2147483648];
43--67 [label =  70, meandist = -2147483648];
79--37 [label =  32, meandist = -2147483648];
50--13 [label =  23, meandist = -2147483648];
48--92 [label =  58, meandist = -2147483648];
74--18 [label =  17, meandist = -2147483648];
74--14 [label =  17, meandist = -2147483648];
0--94 [label =  80, meandist = -2147483648];
56--35 [label =  61, meandist = -2147483648];
71--35 [label =  17, meandist = -2147483648];
42--16 [label =  34, meandist = -2147483648];
78--62 [label =  21, meandist = -2147483648];
68--88 [label =  23, meandist = -2147483648];
39--5 [label =  6, meandist = -2147483648];
39--38 [label =  5, meandist = -2147483648];
37--21 [label =  21, meandist = -2147483648];
13--22 [label =  39, meandist = -2147483648];
58--81 [label =  15, meandist = -2147483648];
33--46 [label =  10, meandist = -2147483648];
26--76 [label =  19, meandist = -2147483648];
34--20 [label =  35, meandist = -2147483648];
45--7 [label =  23, meandist = -2147483648];
17--64 [label =  6, meandist = -2147483648];
87--27 [label =  11, meandist = -2147483648];
15--81 [label =  56, meandist = -2147483648];
6--31 [label =  61, meandist = -2147483648];
19--62 [label =  14, meandist = -2147483648];
29--64 [label =  32, meandist = -2147483648];
96--60 [label =  6, meandist = -2147483648];
47--76 [label =  18, meandist = -2147483648];
9--46 [label =  3, meandist = -2147483648];
28--11 [label =  4, meandist = -2147483648];
60--66 [label =  0, meandist = -2147483648];
28--24 [label =  0, meandist = -2147483648];
48--3 [cname = "", length = -2147483648, style = "bold", mult = 1];
53--79 [cname = "", length = -2147483648, style = "bold", mult = 1];
33--95 [cname = "", length = -2147483648, style = "bold", mult = 1];
22--21 [cname = "", length = -2147483648, style = "bold", mult = 1];
82--20 [cname = "", length = -2147483648, style = "bold", mult = 1];
93--65 [cname = "", length = -2147483648, style = "bold", mult = 1];
96--9 [cname = "", length = -2147483648, style = "bold", mult = 1];
83--17 [cname = "", length = -2147483648, style = "bold", mult = 1];
50--91 [cname = "", length = -2147483648, style = "bold", mult = 1];
94--72 [cname = "", length = -2147483648, style = "bold", mult = 1];
14--80 [cname = "", length = -2147483648, style = "bold", mult = 1];
15--2 [cname = "", length = -2147483648, style = "bold", mult = 1];
90--69 [cname = "", length = -2147483648, style = "bold", mult = 1];
51--71 [cname = "", length = -2147483648, style = "bold", mult = 1];
84--88 [cname = "", length = -2147483648, style = "bold", mult = 1];
40--6 [cname = "", length = -2147483648, style = "bold", mult = 1];
26--61 [cname = "", length = -2147483648, style = "bold", mult = 1];
77--12 [cname = "", length = -2147483648, style = "bold", mult = 1];
23--24 [cname = "", length = -2147483648, style = "bold", mult = 1];
47--57 [cname = "", length = -2147483648, style = "bold", mult = 1];
52--7 [cname = "", length = -2147483648, style = "bold", mult = 1];
4--86 [cname = "", length = -2147483648, style = "bold", mult = 1];
19--36 [cname = "", length = -2147483648, style = "bold", mult = 1];
41--49 [cname = "", length = -2147483648, style = "bold", mult = 1];
63--58 [cname = "", length = -2147483648, style = "bold", mult = 1];
89--56 [cname = "", length = -2147483648, style = "bold", mult = 1];
38--10 [cname = "", length = -2147483648, style = "bold", mult = 1];
55--73 [cname = "", length = -2147483648, style = "bold", mult = 1];
78--25 [cname = "", length = -2147483648, style = "bold", mult = 1];
}
