graph G {
graph [insert_size = 0, sd = 0];
0[label = "0"];
1[label = "1"];
2[label = "2"];
3[label = "3"];
4[label = "4"];
5[label = "5"];
6[label = "6"];
7[label = "7"];
8[label = "8"];
9[label = "9"];
10[label = "10"];
11[label = "11"];
12[label = "12"];
13[label = "13"];
14[label = "14"];
15[label = "15"];
16[label = "16"];
17[label = "17"];
18[label = "18"];
19[label = "19"];
20[label = "20"];
21[label = "21"];
22[label = "22"];
23[label = "23"];
24[label = "24"];
25[label = "25"];
26[label = "26"];
27[label = "27"];
28[label = "28"];
29[label = "29"];
30[label = "30"];
31[label = "31"];
32[label = "32"];
33[label = "33"];
34[label = "34"];
35[label = "35"];
36[label = "36"];
37[label = "37"];
38[label = "38"];
39[label = "39"];
40[label = "40"];
41[label = "41"];
42[label = "42"];
43[label = "43"];
44[label = "44"];
45[label = "45"];
46[label = "46"];
47[label = "47"];
48[label = "48"];
49[label = "49"];
50[label = "50"];
51[label = "51"];
52[label = "52"];
53[label = "53"];
54[label = "54"];
55[label = "55"];
56[label = "56"];
57[label = "57"];
58[label = "58"];
59[label = "59"];
60[label = "60"];
61[label = "61"];
62[label = "62"];
63[label = "63"];
64[label = "64"];
65[label = "65"];
66[label = "66"];
67[label = "67"];
68[label = "68"];
69[label = "69"];
70[label = "70"];
71[label = "71"];
72[label = "72"];
73[label = "73"];
74[label = "74"];
75[label = "75"];
76[label = "76"];
77[label = "77"];
78[label = "78"];
79[label = "79"];
80[label = "80"];
81[label = "81"];
82[label = "82"];
83[label = "83"];
84[label = "84"];
85[label = "85"];
86[label = "86"];
87[label = "87"];
88[label = "88"];
89[label = "89"];
90[label = "90"];
91[label = "91"];
92[label = "92"];
93[label = "93"];
94[label = "94"];
95[label = "95"];
96[label = "96"];
97[label = "97"];
98[label = "98"];
99[label = "99"];
72--54 [cname = "", length = -2147483648, style = "bold", mult = 4, color = "darkgreen"];
10--56 [cname = "", length = -2147483648, style = "bold", mult = 2, color = "darkgreen"];
4--66 [cname = "", length = -2147483648, style = "bold", mult = 1];
65--11 [cname = "", length = -2147483648, style = "bold", mult = 2, color = "darkgreen"];
93--81 [cname = "", length = -2147483648, style = "bold", mult = 2, color = "darkgreen"];
95--91 [cname = "", length = -2147483648, style = "bold", mult = 4, color = "darkgreen"];
52--75 [cname = "", length = -2147483648, style = "bold", mult = 2, color = "darkgreen"];
44--48 [cname = "", length = -2147483648, style = "bold", mult = 4, color = "darkgreen"];
82--32 [cname = "", length = -2147483648, style = "bold", mult = 4, color = "darkgreen"];
7--71 [cname = "", length = -2147483648, style = "bold", mult = 1];
68--98 [cname = "", length = -2147483648, style = "bold", mult = 2, color = "darkgreen"];
77--50 [cname = "", length = -2147483648, style = "bold", mult = 3, color = "darkgreen"];
14--23 [cname = "", length = -2147483648, style = "bold", mult = 2, color = "darkgreen"];
76--84 [cname = "", length = -2147483648, style = "bold", mult = 2, color = "darkgreen"];
73--51 [cname = "", length = -2147483648, style = "bold", mult = 4, color = "darkgreen"];
61--36 [cname = "", length = -2147483648, style = "bold", mult = 2, color = "darkgreen"];
59--17 [cname = "", length = -2147483648, style = "bold", mult = 2, color = "darkgreen"];
70--15 [cname = "", length = -2147483648, style = "bold", mult = 2, color = "darkgreen"];
87--69 [cname = "", length = -2147483648, style = "bold", mult = 1];
46--45 [cname = "", length = -2147483648, style = "bold", mult = 1];
78--16 [cname = "", length = -2147483648, style = "bold", mult = 1];
39--19 [cname = "", length = -2147483648, style = "bold", mult = 2, color = "darkgreen"];
70--37 [label =  10, meandist = -2147483648];
15--13 [label =  1, meandist = -2147483648];
45--72 [label =  14, meandist = -2147483648];
40--39 [label =  25, meandist = -2147483648];
35--72 [label =  27, meandist = -2147483648];
31--72 [label =  16, meandist = -2147483648];
78--19 [label =  7, meandist = -2147483648];
1--81 [label =  75, meandist = -2147483648];
19--63 [label =  28, meandist = -2147483648];
72--43 [label =  13, meandist = -2147483648];
54--23 [label =  8, meandist = -2147483648];
10--84 [label =  9, meandist = -2147483648];
3--77 [label =  8, meandist = -2147483648];
53--95 [label =  77, meandist = -2147483648];
4--48 [label =  25, meandist = -2147483648];
12--11 [label =  2, meandist = -2147483648];
65--94 [label =  18, meandist = -2147483648];
85--75 [label =  34, meandist = -2147483648];
5--75 [label =  37, meandist = -2147483648];
6--76 [label =  73, meandist = -2147483648];
28--52 [label =  27, meandist = -2147483648];
20--52 [label =  1, meandist = -2147483648];
25--95 [label =  34, meandist = -2147483648];
95--67 [label =  34, meandist = -2147483648];
91--32 [label =  24, meandist = -2147483648];
34--77 [label =  10, meandist = -2147483648];
44--82 [label =  26, meandist = -2147483648];
68--99 [label =  37, meandist = -2147483648];
68--0 [label =  68, meandist = -2147483648];
98--49 [label =  79, meandist = -2147483648];
98--22 [label =  6, meandist = -2147483648];
42--17 [label =  82, meandist = -2147483648];
26--17 [label =  43, meandist = -2147483648];
21--11 [label =  18, meandist = -2147483648];
73--64 [label =  46, meandist = -2147483648];
73--50 [label =  7, meandist = -2147483648];
96--95 [label =  32, meandist = -2147483648];
47--93 [label =  53, meandist = -2147483648];
61--7 [label =  7, meandist = -2147483648];
36--87 [label =  6, meandist = -2147483648];
36--2 [label =  13, meandist = -2147483648];
59--8 [label =  4, meandist = -2147483648];
59--38 [label =  38, meandist = -2147483648];
27--61 [label =  0, meandist = -2147483648];
77--58 [label =  0, meandist = -2147483648];
56--30 [label =  0, meandist = -2147483648];
65--18 [label =  0, meandist = -2147483648];
42--86 [cname = "", length = -2147483648, style = "bold", mult = 1];
29--28 [cname = "", length = -2147483648, style = "bold", mult = 1];
20--74 [cname = "", length = -2147483648, style = "bold", mult = 1];
30--2 [cname = "", length = -2147483648, style = "bold", mult = 1];
64--63 [cname = "", length = -2147483648, style = "bold", mult = 1];
67--40 [cname = "", length = -2147483648, style = "bold", mult = 1];
26--83 [cname = "", length = -2147483648, style = "bold", mult = 1];
58--12 [cname = "", length = -2147483648, style = "bold", mult = 1];
0--34 [cname = "", length = -2147483648, style = "bold", mult = 1];
21--57 [cname = "", length = -2147483648, style = "bold", mult = 1];
60--25 [cname = "", length = -2147483648, style = "bold", mult = 1];
8--62 [cname = "", length = -2147483648, style = "bold", mult = 1];
55--6 [cname = "", length = -2147483648, style = "bold", mult = 1];
94--9 [cname = "", length = -2147483648, style = "bold", mult = 1];
31--89 [cname = "", length = -2147483648, style = "bold", mult = 1];
47--38 [cname = "", length = -2147483648, style = "bold", mult = 1];
3--80 [cname = "", length = -2147483648, style = "bold", mult = 1];
33--1 [cname = "", length = -2147483648, style = "bold", mult = 1];
27--79 [cname = "", length = -2147483648, style = "bold", mult = 1];
92--5 [cname = "", length = -2147483648, style = "bold", mult = 1];
97--85 [cname = "", length = -2147483648, style = "bold", mult = 1];
41--99 [cname = "", length = -2147483648, style = "bold", mult = 1];
22--88 [cname = "", length = -2147483648, style = "bold", mult = 1];
96--90 [cname = "", length = -2147483648, style = "bold", mult = 1];
49--24 [cname = "", length = -2147483648, style = "bold", mult = 1];
37--35 [cname = "", length = -2147483648, style = "bold", mult = 1];
13--18 [cname = "", length = -2147483648, style = "bold", mult = 1];
53--43 [cname = "", length = -2147483648, style = "bold", mult = 1];
}
